Sampling Distribution – DataSci for Lang & Mind
…
6.4 Generate the sampling distribution

Generate the sampling distribution with specify(), generate(), and calculate()

bootstrap_distribution <- sample1  %>% 
  specify(response = volume) %>% 
  generate(reps = 1000, type = "bootstrap") %>% 
  calculate(stat = "mean")

bootstrap_distribution

Response: volume (numeric)
# A tibble: 1,000 × 2
   replicate  stat
       <int> <dbl>
 1         1 1213.
 2         2 1184.
 3         3 1194.
 4         4 1184.
 5         5 1200.
 6         6 1180.
 7         7 1197.
 8         8 1202.
 9         9 1189.
10        10 1193.
# ℹ 990 more rows
…
