Sampling Distribution Demo – DataSci for Lang & Mind
…
rnorm()
n, mean, sd
returns n random numbers generated from the distribution

4.4 rnorm() to sample from the distribution

rnorm(n, mean, sd): returns n random numbers generated from the distribution

(normy <- tibble(
  x = rnorm(1000, mean = 0, sd = 1)
))

# A tibble: 1,000 × 1
         x
     <dbl>
 1 -0.560 
 2 -0.230 
 3  1.56  
 4  0.0705
 5  0.129 
 6  1.72  
 7  0.461 
 8 -1.27  
 9 -0.687 
10 -0.446 
# ℹ 990 more rows
…
[1] -2.053749

4.8 Using other distributions

Change the function’s suffix (the * in r*()) to another distribution and pass the parameters that define that distribution.

. . .

runif(n, min, max): returns n random numbers generated from the distribution

(uni<- tibble(
  x = runif(1000, min= 0, max = 1)
))

# A tibble: 1,000 × 1
         x
     <dbl>
 1 0.160  
 2 0.145  
 3 0.149  
 4 0.514  
 5 0.493  
 6 0.616  
 7 0.447  
 8 0.0557 
 9 0.00540
10 0.222  
# ℹ 990 more rows
…
5 Sampling distribution and bootstrapping

Let’s do a walk through from start to finish

5.1 The parameter

Generate data for the brain volume of the 28201 grad and undergrad students at UPenn and compute the parameter of interest (mean brain volume)

(population <- tibble(
  subject_id = 1:28201, 
  volume = rnorm(28201, mean = 1200, sd = 100)
))

# A tibble: 28,201 × 2
   subject_id volume
        <int>  <dbl>
 1          1  1118.
 2          2  1169.
 3          3  1110.
 4          4  1263.
 5          5  1312.
 6          6  1413.
 7          7  1237.
 8          8  1113.
 9          9  1302.
10         10  1290.
# ℹ 28,191 more rows

5.2 The parameter estimate

Now take a realistic sample of 100 students and compute the paramter estimate (mean brain volume on our sample)

(sample <- population %>%
  sample_n(100))

# A tibble: 100 × 2
   subject_id volume
        <int>  <dbl>
 1       4298  1182.
 2      27939  1264.
 3      25914  1229.
 4      16043  1357.
 5      26225  1330.
 6       5698  1294.
 7      14734  1272.
 8      17798  1288.
 9       9385  1302.
10      18394  1278.
# ℹ 90 more rows
…
standard error (the standard deviation of the sampling distribution; parametric)

confidence intervals (the nonparametric approach to quantify spread)

5.4 Bootstrap the sampling distribution

Use infer to construct the probability distribution of the values our parameter estimate can take on (the sampling distribution).

(bootstrap_distribution <- sample  %>% 
  specify(response = volume) %>% 
  generate(reps = 1000, type = "bootstrap") %>% 
  calculate(stat = "mean"))

Response: volume (numeric)
# A tibble: 1,000 × 2
   replicate  stat
       <int> <dbl>
 1         1 1209.
 2         2 1195.
 3         3 1213.
 4         4 1186.
 5         5 1215.
 6         6 1186.
 7         7 1213.
 8         8 1217.
 9         9 1220.
10        10 1225.
# ℹ 990 more rows
…
